('C:\\Users\\cgrs27\\Desktop\\hyper9\\build\\tk_hyper2\\PYZ-00.pyz',
 [('multiprocessing.popen_fork',
   'c:\\python38\\lib\\multiprocessing\\popen_fork.py',
   'PYMODULE'),
  ('multiprocessing.connection',
   'c:\\python38\\lib\\multiprocessing\\connection.py',
   'PYMODULE'),
  ('multiprocessing.resource_sharer',
   'c:\\python38\\lib\\multiprocessing\\resource_sharer.py',
   'PYMODULE'),
  ('multiprocessing.process',
   'c:\\python38\\lib\\multiprocessing\\process.py',
   'PYMODULE'),
  ('threading', 'c:\\python38\\lib\\threading.py', 'PYMODULE'),
  ('_threading_local', 'c:\\python38\\lib\\_threading_local.py', 'PYMODULE'),
  ('contextlib', 'c:\\python38\\lib\\contextlib.py', 'PYMODULE'),
  ('selectors', 'c:\\python38\\lib\\selectors.py', 'PYMODULE'),
  ('xmlrpc.client', 'c:\\python38\\lib\\xmlrpc\\client.py', 'PYMODULE'),
  ('xmlrpc', 'c:\\python38\\lib\\xmlrpc\\__init__.py', 'PYMODULE'),
  ('gzip', 'c:\\python38\\lib\\gzip.py', 'PYMODULE'),
  ('argparse', 'c:\\python38\\lib\\argparse.py', 'PYMODULE'),
  ('textwrap', 'c:\\python38\\lib\\textwrap.py', 'PYMODULE'),
  ('copy', 'c:\\python38\\lib\\copy.py', 'PYMODULE'),
  ('gettext', 'c:\\python38\\lib\\gettext.py', 'PYMODULE'),
  ('shutil', 'c:\\python38\\lib\\shutil.py', 'PYMODULE'),
  ('zipfile', 'c:\\python38\\lib\\zipfile.py', 'PYMODULE'),
  ('py_compile', 'c:\\python38\\lib\\py_compile.py', 'PYMODULE'),
  ('importlib.machinery',
   'c:\\python38\\lib\\importlib\\machinery.py',
   'PYMODULE'),
  ('importlib', 'c:\\python38\\lib\\importlib\\__init__.py', 'PYMODULE'),
  ('importlib._bootstrap',
   'c:\\python38\\lib\\importlib\\_bootstrap.py',
   'PYMODULE'),
  ('importlib._bootstrap_external',
   'c:\\python38\\lib\\importlib\\_bootstrap_external.py',
   'PYMODULE'),
  ('importlib.metadata',
   'c:\\python38\\lib\\importlib\\metadata.py',
   'PYMODULE'),
  ('importlib.abc', 'c:\\python38\\lib\\importlib\\abc.py', 'PYMODULE'),
  ('configparser', 'c:\\python38\\lib\\configparser.py', 'PYMODULE'),
  ('pathlib', 'c:\\python38\\lib\\pathlib.py', 'PYMODULE'),
  ('ntpath', 'c:\\python38\\lib\\ntpath.py', 'PYMODULE'),
  ('string', 'c:\\python38\\lib\\string.py', 'PYMODULE'),
  ('genericpath', 'c:\\python38\\lib\\genericpath.py', 'PYMODULE'),
  ('email', 'c:\\python38\\lib\\email\\__init__.py', 'PYMODULE'),
  ('email.parser', 'c:\\python38\\lib\\email\\parser.py', 'PYMODULE'),
  ('email._policybase', 'c:\\python38\\lib\\email\\_policybase.py', 'PYMODULE'),
  ('email.utils', 'c:\\python38\\lib\\email\\utils.py', 'PYMODULE'),
  ('email._parseaddr', 'c:\\python38\\lib\\email\\_parseaddr.py', 'PYMODULE'),
  ('calendar', 'c:\\python38\\lib\\calendar.py', 'PYMODULE'),
  ('random', 'c:\\python38\\lib\\random.py', 'PYMODULE'),
  ('hashlib', 'c:\\python38\\lib\\hashlib.py', 'PYMODULE'),
  ('logging', 'c:\\python38\\lib\\logging\\__init__.py', 'PYMODULE'),
  ('pickle', 'c:\\python38\\lib\\pickle.py', 'PYMODULE'),
  ('pprint', 'c:\\python38\\lib\\pprint.py', 'PYMODULE'),
  ('doctest', 'c:\\python38\\lib\\doctest.py', 'PYMODULE'),
  ('unittest', 'c:\\python38\\lib\\unittest\\__init__.py', 'PYMODULE'),
  ('unittest.signals', 'c:\\python38\\lib\\unittest\\signals.py', 'PYMODULE'),
  ('unittest.main', 'c:\\python38\\lib\\unittest\\main.py', 'PYMODULE'),
  ('unittest.runner', 'c:\\python38\\lib\\unittest\\runner.py', 'PYMODULE'),
  ('unittest.loader', 'c:\\python38\\lib\\unittest\\loader.py', 'PYMODULE'),
  ('unittest.suite', 'c:\\python38\\lib\\unittest\\suite.py', 'PYMODULE'),
  ('unittest.case', 'c:\\python38\\lib\\unittest\\case.py', 'PYMODULE'),
  ('unittest.async_case',
   'c:\\python38\\lib\\unittest\\async_case.py',
   'PYMODULE'),
  ('asyncio', 'c:\\python38\\lib\\asyncio\\__init__.py', 'PYMODULE'),
  ('asyncio.unix_events',
   'c:\\python38\\lib\\asyncio\\unix_events.py',
   'PYMODULE'),
  ('asyncio.log', 'c:\\python38\\lib\\asyncio\\log.py', 'PYMODULE'),
  ('asyncio.windows_events',
   'c:\\python38\\lib\\asyncio\\windows_events.py',
   'PYMODULE'),
  ('asyncio.windows_utils',
   'c:\\python38\\lib\\asyncio\\windows_utils.py',
   'PYMODULE'),
  ('asyncio.selector_events',
   'c:\\python38\\lib\\asyncio\\selector_events.py',
   'PYMODULE'),
  ('ssl', 'c:\\python38\\lib\\ssl.py', 'PYMODULE'),
  ('asyncio.proactor_events',
   'c:\\python38\\lib\\asyncio\\proactor_events.py',
   'PYMODULE'),
  ('asyncio.base_subprocess',
   'c:\\python38\\lib\\asyncio\\base_subprocess.py',
   'PYMODULE'),
  ('asyncio.subprocess',
   'c:\\python38\\lib\\asyncio\\subprocess.py',
   'PYMODULE'),
  ('asyncio.streams', 'c:\\python38\\lib\\asyncio\\streams.py', 'PYMODULE'),
  ('asyncio.queues', 'c:\\python38\\lib\\asyncio\\queues.py', 'PYMODULE'),
  ('asyncio.runners', 'c:\\python38\\lib\\asyncio\\runners.py', 'PYMODULE'),
  ('asyncio.events', 'c:\\python38\\lib\\asyncio\\events.py', 'PYMODULE'),
  ('contextvars', 'c:\\python38\\lib\\contextvars.py', 'PYMODULE'),
  ('asyncio.trsock', 'c:\\python38\\lib\\asyncio\\trsock.py', 'PYMODULE'),
  ('asyncio.staggered', 'c:\\python38\\lib\\asyncio\\staggered.py', 'PYMODULE'),
  ('typing', 'c:\\python38\\lib\\typing.py', 'PYMODULE'),
  ('asyncio.tasks', 'c:\\python38\\lib\\asyncio\\tasks.py', 'PYMODULE'),
  ('concurrent.futures',
   'c:\\python38\\lib\\concurrent\\futures\\__init__.py',
   'PYMODULE'),
  ('concurrent.futures.thread',
   'c:\\python38\\lib\\concurrent\\futures\\thread.py',
   'PYMODULE'),
  ('queue', 'c:\\python38\\lib\\queue.py', 'PYMODULE'),
  ('concurrent.futures.process',
   'c:\\python38\\lib\\concurrent\\futures\\process.py',
   'PYMODULE'),
  ('multiprocessing.queues',
   'c:\\python38\\lib\\multiprocessing\\queues.py',
   'PYMODULE'),
  ('multiprocessing.synchronize',
   'c:\\python38\\lib\\multiprocessing\\synchronize.py',
   'PYMODULE'),
  ('multiprocessing.heap',
   'c:\\python38\\lib\\multiprocessing\\heap.py',
   'PYMODULE'),
  ('multiprocessing.resource_tracker',
   'c:\\python38\\lib\\multiprocessing\\resource_tracker.py',
   'PYMODULE'),
  ('concurrent.futures._base',
   'c:\\python38\\lib\\concurrent\\futures\\_base.py',
   'PYMODULE'),
  ('concurrent', 'c:\\python38\\lib\\concurrent\\__init__.py', 'PYMODULE'),
  ('asyncio.base_tasks',
   'c:\\python38\\lib\\asyncio\\base_tasks.py',
   'PYMODULE'),
  ('asyncio.locks', 'c:\\python38\\lib\\asyncio\\locks.py', 'PYMODULE'),
  ('asyncio.sslproto', 'c:\\python38\\lib\\asyncio\\sslproto.py', 'PYMODULE'),
  ('asyncio.transports',
   'c:\\python38\\lib\\asyncio\\transports.py',
   'PYMODULE'),
  ('asyncio.base_events',
   'c:\\python38\\lib\\asyncio\\base_events.py',
   'PYMODULE'),
  ('asyncio.protocols', 'c:\\python38\\lib\\asyncio\\protocols.py', 'PYMODULE'),
  ('asyncio.futures', 'c:\\python38\\lib\\asyncio\\futures.py', 'PYMODULE'),
  ('asyncio.coroutines',
   'c:\\python38\\lib\\asyncio\\coroutines.py',
   'PYMODULE'),
  ('asyncio.base_futures',
   'c:\\python38\\lib\\asyncio\\base_futures.py',
   'PYMODULE'),
  ('asyncio.exceptions',
   'c:\\python38\\lib\\asyncio\\exceptions.py',
   'PYMODULE'),
  ('asyncio.format_helpers',
   'c:\\python38\\lib\\asyncio\\format_helpers.py',
   'PYMODULE'),
  ('asyncio.constants', 'c:\\python38\\lib\\asyncio\\constants.py', 'PYMODULE'),
  ('unittest.result', 'c:\\python38\\lib\\unittest\\result.py', 'PYMODULE'),
  ('unittest.util', 'c:\\python38\\lib\\unittest\\util.py', 'PYMODULE'),
  ('pdb', 'c:\\python38\\lib\\pdb.py', 'PYMODULE'),
  ('getopt', 'c:\\python38\\lib\\getopt.py', 'PYMODULE'),
  ('pydoc', 'c:\\python38\\lib\\pydoc.py', 'PYMODULE'),
  ('webbrowser', 'c:\\python38\\lib\\webbrowser.py', 'PYMODULE'),
  ('email.message', 'c:\\python38\\lib\\email\\message.py', 'PYMODULE'),
  ('email.policy', 'c:\\python38\\lib\\email\\policy.py', 'PYMODULE'),
  ('email.contentmanager',
   'c:\\python38\\lib\\email\\contentmanager.py',
   'PYMODULE'),
  ('email.quoprimime', 'c:\\python38\\lib\\email\\quoprimime.py', 'PYMODULE'),
  ('email.headerregistry',
   'c:\\python38\\lib\\email\\headerregistry.py',
   'PYMODULE'),
  ('email.iterators', 'c:\\python38\\lib\\email\\iterators.py', 'PYMODULE'),
  ('email.generator', 'c:\\python38\\lib\\email\\generator.py', 'PYMODULE'),
  ('email._encoded_words',
   'c:\\python38\\lib\\email\\_encoded_words.py',
   'PYMODULE'),
  ('quopri', 'c:\\python38\\lib\\quopri.py', 'PYMODULE'),
  ('uu', 'c:\\python38\\lib\\uu.py', 'PYMODULE'),
  ('optparse', 'c:\\python38\\lib\\optparse.py', 'PYMODULE'),
  ('http.server', 'c:\\python38\\lib\\http\\server.py', 'PYMODULE'),
  ('http', 'c:\\python38\\lib\\http\\__init__.py', 'PYMODULE'),
  ('socketserver', 'c:\\python38\\lib\\socketserver.py', 'PYMODULE'),
  ('mimetypes', 'c:\\python38\\lib\\mimetypes.py', 'PYMODULE'),
  ('html', 'c:\\python38\\lib\\html\\__init__.py', 'PYMODULE'),
  ('html.entities', 'c:\\python38\\lib\\html\\entities.py', 'PYMODULE'),
  ('pydoc_data.topics', 'c:\\python38\\lib\\pydoc_data\\topics.py', 'PYMODULE'),
  ('pydoc_data', 'c:\\python38\\lib\\pydoc_data\\__init__.py', 'PYMODULE'),
  ('tty', 'c:\\python38\\lib\\tty.py', 'PYMODULE'),
  ('sysconfig', 'c:\\python38\\lib\\sysconfig.py', 'PYMODULE'),
  ('_osx_support', 'c:\\python38\\lib\\_osx_support.py', 'PYMODULE'),
  ('distutils.log', 'c:\\python38\\lib\\distutils\\log.py', 'PYMODULE'),
  ('distutils', 'c:\\python38\\lib\\distutils\\__init__.py', 'PYMODULE'),
  ('distutils.ccompiler',
   'c:\\python38\\lib\\distutils\\ccompiler.py',
   'PYMODULE'),
  ('distutils.fancy_getopt',
   'c:\\python38\\lib\\distutils\\fancy_getopt.py',
   'PYMODULE'),
  ('distutils.debug', 'c:\\python38\\lib\\distutils\\debug.py', 'PYMODULE'),
  ('distutils.util', 'c:\\python38\\lib\\distutils\\util.py', 'PYMODULE'),
  ('distutils.filelist',
   'c:\\python38\\lib\\distutils\\filelist.py',
   'PYMODULE'),
  ('lib2to3.refactor', 'c:\\python38\\lib\\lib2to3\\refactor.py', 'PYMODULE'),
  ('lib2to3.btm_matcher',
   'c:\\python38\\lib\\lib2to3\\btm_matcher.py',
   'PYMODULE'),
  ('lib2to3.btm_utils', 'c:\\python38\\lib\\lib2to3\\btm_utils.py', 'PYMODULE'),
  ('lib2to3.pgen2.grammar',
   'c:\\python38\\lib\\lib2to3\\pgen2\\grammar.py',
   'PYMODULE'),
  ('lib2to3.pygram', 'c:\\python38\\lib\\lib2to3\\pygram.py', 'PYMODULE'),
  ('lib2to3.pytree', 'c:\\python38\\lib\\lib2to3\\pytree.py', 'PYMODULE'),
  ('lib2to3', 'c:\\python38\\lib\\lib2to3\\__init__.py', 'PYMODULE'),
  ('lib2to3.patcomp', 'c:\\python38\\lib\\lib2to3\\patcomp.py', 'PYMODULE'),
  ('lib2to3.pgen2.parse',
   'c:\\python38\\lib\\lib2to3\\pgen2\\parse.py',
   'PYMODULE'),
  ('lib2to3.pgen2.literals',
   'c:\\python38\\lib\\lib2to3\\pgen2\\literals.py',
   'PYMODULE'),
  ('lib2to3.fixer_util',
   'c:\\python38\\lib\\lib2to3\\fixer_util.py',
   'PYMODULE'),
  ('lib2to3.pgen2.token',
   'c:\\python38\\lib\\lib2to3\\pgen2\\token.py',
   'PYMODULE'),
  ('lib2to3.pgen2.tokenize',
   'c:\\python38\\lib\\lib2to3\\pgen2\\tokenize.py',
   'PYMODULE'),
  ('lib2to3.pgen2.driver',
   'c:\\python38\\lib\\lib2to3\\pgen2\\driver.py',
   'PYMODULE'),
  ('lib2to3.pgen2.pgen',
   'c:\\python38\\lib\\lib2to3\\pgen2\\pgen.py',
   'PYMODULE'),
  ('lib2to3.pgen2',
   'c:\\python38\\lib\\lib2to3\\pgen2\\__init__.py',
   'PYMODULE'),
  ('distutils.dep_util',
   'c:\\python38\\lib\\distutils\\dep_util.py',
   'PYMODULE'),
  ('distutils.dir_util',
   'c:\\python38\\lib\\distutils\\dir_util.py',
   'PYMODULE'),
  ('distutils.file_util',
   'c:\\python38\\lib\\distutils\\file_util.py',
   'PYMODULE'),
  ('distutils.spawn', 'c:\\python38\\lib\\distutils\\spawn.py', 'PYMODULE'),
  ('distutils.errors', 'c:\\python38\\lib\\distutils\\errors.py', 'PYMODULE'),
  ('distutils.sysconfig',
   'c:\\python38\\lib\\distutils\\sysconfig.py',
   'PYMODULE'),
  ('distutils.text_file',
   'c:\\python38\\lib\\distutils\\text_file.py',
   'PYMODULE'),
  ('platform', 'c:\\python38\\lib\\platform.py', 'PYMODULE'),
  ('plistlib', 'c:\\python38\\lib\\plistlib.py', 'PYMODULE'),
  ('pkgutil', 'c:\\python38\\lib\\pkgutil.py', 'PYMODULE'),
  ('zipimport', 'c:\\python38\\lib\\zipimport.py', 'PYMODULE'),
  ('runpy', 'c:\\python38\\lib\\runpy.py', 'PYMODULE'),
  ('shlex', 'c:\\python38\\lib\\shlex.py', 'PYMODULE'),
  ('glob', 'c:\\python38\\lib\\glob.py', 'PYMODULE'),
  ('code', 'c:\\python38\\lib\\code.py', 'PYMODULE'),
  ('codeop', 'c:\\python38\\lib\\codeop.py', 'PYMODULE'),
  ('dis', 'c:\\python38\\lib\\dis.py', 'PYMODULE'),
  ('opcode', 'c:\\python38\\lib\\opcode.py', 'PYMODULE'),
  ('bdb', 'c:\\python38\\lib\\bdb.py', 'PYMODULE'),
  ('cmd', 'c:\\python38\\lib\\cmd.py', 'PYMODULE'),
  ('inspect', 'c:\\python38\\lib\\inspect.py', 'PYMODULE'),
  ('ast', 'c:\\python38\\lib\\ast.py', 'PYMODULE'),
  ('token', 'c:\\python38\\lib\\token.py', 'PYMODULE'),
  ('difflib', 'c:\\python38\\lib\\difflib.py', 'PYMODULE'),
  ('__future__', 'c:\\python38\\lib\\__future__.py', 'PYMODULE'),
  ('_compat_pickle', 'c:\\python38\\lib\\_compat_pickle.py', 'PYMODULE'),
  ('bisect', 'c:\\python38\\lib\\bisect.py', 'PYMODULE'),
  ('email.feedparser', 'c:\\python38\\lib\\email\\feedparser.py', 'PYMODULE'),
  ('email._header_value_parser',
   'c:\\python38\\lib\\email\\_header_value_parser.py',
   'PYMODULE'),
  ('urllib', 'c:\\python38\\lib\\urllib\\__init__.py', 'PYMODULE'),
  ('email.header', 'c:\\python38\\lib\\email\\header.py', 'PYMODULE'),
  ('email.base64mime', 'c:\\python38\\lib\\email\\base64mime.py', 'PYMODULE'),
  ('email.charset', 'c:\\python38\\lib\\email\\charset.py', 'PYMODULE'),
  ('email.encoders', 'c:\\python38\\lib\\email\\encoders.py', 'PYMODULE'),
  ('email.errors', 'c:\\python38\\lib\\email\\errors.py', 'PYMODULE'),
  ('csv', 'c:\\python38\\lib\\csv.py', 'PYMODULE'),
  ('tokenize', 'c:\\python38\\lib\\tokenize.py', 'PYMODULE'),
  ('posixpath', 'c:\\python38\\lib\\posixpath.py', 'PYMODULE'),
  ('importlib.util', 'c:\\python38\\lib\\importlib\\util.py', 'PYMODULE'),
  ('tarfile', 'c:\\python38\\lib\\tarfile.py', 'PYMODULE'),
  ('lzma', 'c:\\python38\\lib\\lzma.py', 'PYMODULE'),
  ('bz2', 'c:\\python38\\lib\\bz2.py', 'PYMODULE'),
  ('fnmatch', 'c:\\python38\\lib\\fnmatch.py', 'PYMODULE'),
  ('stat', 'c:\\python38\\lib\\stat.py', 'PYMODULE'),
  ('_compression', 'c:\\python38\\lib\\_compression.py', 'PYMODULE'),
  ('xml.parsers.expat',
   'c:\\python38\\lib\\xml\\parsers\\expat.py',
   'PYMODULE'),
  ('xml.parsers', 'c:\\python38\\lib\\xml\\parsers\\__init__.py', 'PYMODULE'),
  ('xml', 'c:\\python38\\lib\\xml\\__init__.py', 'PYMODULE'),
  ('xml.sax.expatreader',
   'c:\\python38\\lib\\xml\\sax\\expatreader.py',
   'PYMODULE'),
  ('xml.sax.saxutils', 'c:\\python38\\lib\\xml\\sax\\saxutils.py', 'PYMODULE'),
  ('urllib.request', 'c:\\python38\\lib\\urllib\\request.py', 'PYMODULE'),
  ('getpass', 'c:\\python38\\lib\\getpass.py', 'PYMODULE'),
  ('nturl2path', 'c:\\python38\\lib\\nturl2path.py', 'PYMODULE'),
  ('ftplib', 'c:\\python38\\lib\\ftplib.py', 'PYMODULE'),
  ('netrc', 'c:\\python38\\lib\\netrc.py', 'PYMODULE'),
  ('http.cookiejar', 'c:\\python38\\lib\\http\\cookiejar.py', 'PYMODULE'),
  ('urllib.response', 'c:\\python38\\lib\\urllib\\response.py', 'PYMODULE'),
  ('urllib.error', 'c:\\python38\\lib\\urllib\\error.py', 'PYMODULE'),
  ('xml.sax', 'c:\\python38\\lib\\xml\\sax\\__init__.py', 'PYMODULE'),
  ('xml.sax.handler', 'c:\\python38\\lib\\xml\\sax\\handler.py', 'PYMODULE'),
  ('xml.sax._exceptions',
   'c:\\python38\\lib\\xml\\sax\\_exceptions.py',
   'PYMODULE'),
  ('xml.sax.xmlreader',
   'c:\\python38\\lib\\xml\\sax\\xmlreader.py',
   'PYMODULE'),
  ('urllib.parse', 'c:\\python38\\lib\\urllib\\parse.py', 'PYMODULE'),
  ('http.client', 'c:\\python38\\lib\\http\\client.py', 'PYMODULE'),
  ('decimal', 'c:\\python38\\lib\\decimal.py', 'PYMODULE'),
  ('_pydecimal', 'c:\\python38\\lib\\_pydecimal.py', 'PYMODULE'),
  ('numbers', 'c:\\python38\\lib\\numbers.py', 'PYMODULE'),
  ('datetime', 'c:\\python38\\lib\\datetime.py', 'PYMODULE'),
  ('_strptime', 'c:\\python38\\lib\\_strptime.py', 'PYMODULE'),
  ('base64', 'c:\\python38\\lib\\base64.py', 'PYMODULE'),
  ('hmac', 'c:\\python38\\lib\\hmac.py', 'PYMODULE'),
  ('multiprocessing.context',
   'c:\\python38\\lib\\multiprocessing\\context.py',
   'PYMODULE'),
  ('multiprocessing.popen_forkserver',
   'c:\\python38\\lib\\multiprocessing\\popen_forkserver.py',
   'PYMODULE'),
  ('multiprocessing.popen_spawn_posix',
   'c:\\python38\\lib\\multiprocessing\\popen_spawn_posix.py',
   'PYMODULE'),
  ('multiprocessing.forkserver',
   'c:\\python38\\lib\\multiprocessing\\forkserver.py',
   'PYMODULE'),
  ('multiprocessing.sharedctypes',
   'c:\\python38\\lib\\multiprocessing\\sharedctypes.py',
   'PYMODULE'),
  ('ctypes', 'c:\\python38\\lib\\ctypes\\__init__.py', 'PYMODULE'),
  ('ctypes._endian', 'c:\\python38\\lib\\ctypes\\_endian.py', 'PYMODULE'),
  ('multiprocessing.pool',
   'c:\\python38\\lib\\multiprocessing\\pool.py',
   'PYMODULE'),
  ('multiprocessing.dummy',
   'c:\\python38\\lib\\multiprocessing\\dummy\\__init__.py',
   'PYMODULE'),
  ('multiprocessing.dummy.connection',
   'c:\\python38\\lib\\multiprocessing\\dummy\\connection.py',
   'PYMODULE'),
  ('multiprocessing.managers',
   'c:\\python38\\lib\\multiprocessing\\managers.py',
   'PYMODULE'),
  ('multiprocessing.shared_memory',
   'c:\\python38\\lib\\multiprocessing\\shared_memory.py',
   'PYMODULE'),
  ('secrets', 'c:\\python38\\lib\\secrets.py', 'PYMODULE'),
  ('multiprocessing.reduction',
   'c:\\python38\\lib\\multiprocessing\\reduction.py',
   'PYMODULE'),
  ('tempfile', 'c:\\python38\\lib\\tempfile.py', 'PYMODULE'),
  ('struct', 'c:\\python38\\lib\\struct.py', 'PYMODULE'),
  ('socket', 'c:\\python38\\lib\\socket.py', 'PYMODULE'),
  ('multiprocessing.util',
   'c:\\python38\\lib\\multiprocessing\\util.py',
   'PYMODULE'),
  ('test.support', 'c:\\python38\\lib\\test\\support\\__init__.py', 'PYMODULE'),
  ('tracemalloc', 'c:\\python38\\lib\\tracemalloc.py', 'PYMODULE'),
  ('ctypes.util', 'c:\\python38\\lib\\ctypes\\util.py', 'PYMODULE'),
  ('ctypes._aix', 'c:\\python38\\lib\\ctypes\\_aix.py', 'PYMODULE'),
  ('ctypes.macholib.dyld',
   'c:\\python38\\lib\\ctypes\\macholib\\dyld.py',
   'PYMODULE'),
  ('ctypes.macholib',
   'c:\\python38\\lib\\ctypes\\macholib\\__init__.py',
   'PYMODULE'),
  ('ctypes.macholib.dylib',
   'c:\\python38\\lib\\ctypes\\macholib\\dylib.py',
   'PYMODULE'),
  ('ctypes.macholib.framework',
   'c:\\python38\\lib\\ctypes\\macholib\\framework.py',
   'PYMODULE'),
  ('ctypes.wintypes', 'c:\\python38\\lib\\ctypes\\wintypes.py', 'PYMODULE'),
  ('test.support.testresult',
   'c:\\python38\\lib\\test\\support\\testresult.py',
   'PYMODULE'),
  ('xml.etree.ElementTree',
   'c:\\python38\\lib\\xml\\etree\\ElementTree.py',
   'PYMODULE'),
  ('xml.etree.cElementTree',
   'c:\\python38\\lib\\xml\\etree\\cElementTree.py',
   'PYMODULE'),
  ('xml.etree.ElementInclude',
   'c:\\python38\\lib\\xml\\etree\\ElementInclude.py',
   'PYMODULE'),
  ('xml.etree.ElementPath',
   'c:\\python38\\lib\\xml\\etree\\ElementPath.py',
   'PYMODULE'),
  ('xml.etree', 'c:\\python38\\lib\\xml\\etree\\__init__.py', 'PYMODULE'),
  ('nntplib', 'c:\\python38\\lib\\nntplib.py', 'PYMODULE'),
  ('logging.handlers', 'c:\\python38\\lib\\logging\\handlers.py', 'PYMODULE'),
  ('win32evtlogutil',
   'c:\\python38\\lib\\site-packages\\win32\\lib\\win32evtlogutil.py',
   'PYMODULE'),
  ('winerror',
   'c:\\python38\\lib\\site-packages\\win32\\lib\\winerror.py',
   'PYMODULE'),
  ('win32con',
   'c:\\python38\\lib\\site-packages\\win32\\lib\\win32con.py',
   'PYMODULE'),
  ('smtplib', 'c:\\python38\\lib\\smtplib.py', 'PYMODULE'),
  ('test', 'c:\\python38\\lib\\test\\__init__.py', 'PYMODULE'),
  ('signal', 'c:\\python38\\lib\\signal.py', 'PYMODULE'),
  ('multiprocessing.popen_spawn_win32',
   'c:\\python38\\lib\\multiprocessing\\popen_spawn_win32.py',
   'PYMODULE'),
  ('subprocess', 'c:\\python38\\lib\\subprocess.py', 'PYMODULE'),
  ('multiprocessing.spawn',
   'c:\\python38\\lib\\multiprocessing\\spawn.py',
   'PYMODULE'),
  ('multiprocessing',
   'c:\\python38\\lib\\multiprocessing\\__init__.py',
   'PYMODULE'),
  ('stringprep', 'c:\\python38\\lib\\stringprep.py', 'PYMODULE'),
  ('_py_abc', 'c:\\python38\\lib\\_py_abc.py', 'PYMODULE'),
  ('tkinter.messagebox',
   'c:\\python38\\lib\\tkinter\\messagebox.py',
   'PYMODULE'),
  ('tkinter.commondialog',
   'c:\\python38\\lib\\tkinter\\commondialog.py',
   'PYMODULE'),
  ('tkinter.font', 'c:\\python38\\lib\\tkinter\\font.py', 'PYMODULE'),
  ('tkinter', 'c:\\python38\\lib\\tkinter\\__init__.py', 'PYMODULE'),
  ('tkinter.constants', 'c:\\python38\\lib\\tkinter\\constants.py', 'PYMODULE'),
  ('json', 'c:\\python38\\lib\\json\\__init__.py', 'PYMODULE'),
  ('json.encoder', 'c:\\python38\\lib\\json\\encoder.py', 'PYMODULE'),
  ('json.decoder', 'c:\\python38\\lib\\json\\decoder.py', 'PYMODULE'),
  ('json.scanner', 'c:\\python38\\lib\\json\\scanner.py', 'PYMODULE'),
  ('funciones_sismicas2',
   'C:\\Users\\cgrs27\\Desktop\\hyper9\\funciones_sismicas2.py',
   'PYMODULE'),
  ('eventsEndpoint',
   'C:\\Users\\cgrs27\\Desktop\\hyper9\\eventsEndpoint.py',
   'PYMODULE'),
  ('httpRequests',
   'C:\\Users\\cgrs27\\Desktop\\hyper9\\httpRequests.py',
   'PYMODULE'),
  ('email.mime.base', 'c:\\python38\\lib\\email\\mime\\base.py', 'PYMODULE'),
  ('email.mime', 'c:\\python38\\lib\\email\\mime\\__init__.py', 'PYMODULE'),
  ('email.mime.text', 'c:\\python38\\lib\\email\\mime\\text.py', 'PYMODULE'),
  ('email.mime.nonmultipart',
   'c:\\python38\\lib\\email\\mime\\nonmultipart.py',
   'PYMODULE'),
  ('email.mime.multipart',
   'c:\\python38\\lib\\email\\mime\\multipart.py',
   'PYMODULE'),
  ('os', 'c:\\python38\\lib\\os.py', 'PYMODULE')])
